\contentsline {section}{\numberline {1}Goal}{1}{section.1}
\contentsline {section}{\numberline {2}Meeting points}{1}{section.2}
\contentsline {subsection}{\numberline {2.1}Email}{1}{subsection.2.1}
\contentsline {subsection}{\numberline {2.2}SEP Project}{1}{subsection.2.2}
\contentsline {subsection}{\numberline {2.3}Interviews}{2}{subsection.2.3}
\contentsline {subsection}{\numberline {2.4}Other}{2}{subsection.2.4}
\contentsline {section}{Action List}{2}{subsection.2.4}
