\BOOKMARK [1][-]{section.1}{Goal}{}% 1
\BOOKMARK [1][-]{section.2}{Meeting points}{}% 2
\BOOKMARK [2][-]{subsection.2.1}{Email}{section.2}% 3
\BOOKMARK [2][-]{subsection.2.2}{SEP Project}{section.2}% 4
\BOOKMARK [2][-]{subsection.2.3}{Interviews}{section.2}% 5
\BOOKMARK [2][-]{subsection.2.4}{Other}{section.2}% 6
\BOOKMARK [1][-]{subsection.2.4}{Action List}{}% 7
