\contentsline {section}{\numberline {1}Goal}{1}{section.1}
\contentsline {section}{\numberline {2}Meeting points}{1}{section.2}
\contentsline {section}{\numberline {3}Amends proposed by Pieter Cuijpers}{1}{section.3}
