id,step,week_number,step_number,reviewer_id,assignment_id,guideline_one_feedback,guideline_two_feedback,guideline_three_feedback,created_at
216901,4.5,4,5,991380a2-aeec-462b-bc86-8d23c5a90368,134313,"Hi Joos,

It's David here, reviewing your test assignment.",Lorem ipsum,Lorem ipsum dolor sit amet.,2016-07-19 15:12:16 UTC
218458,4.5,4,5,f10f639f-6c4f-4313-8f71-7b6e24fc6168,134313,"Hi Joos,
My review won't be very long, as my Latin is not very good...",I guess ;),Probably,2016-08-01 09:05:05 UTC
218492,4.5,4,5,cc28c9b1-593d-4a6b-a202-0f12626acf15,135483,Yes,Yes it has.,"No, no mention of conformance has been mentioned. ",2016-08-01 13:18:32 UTC
218689,4.5,4,5,0679e563-d50f-49f5-b5ce-946bc9b86028,135601,"You have mentioned all discovery techniques. However, there is no evidence of a result and no explanation of your choices. I suggest to use screenshots of the resulting process models, to interpret and compare the results and to provide a discussion and evaluation of your choices.",There is no interpretation of the process model.,"You write that conformance checking was done. However, there is no evidence of a result and no interpretation. I suggest to use screenshots and to discuss the results and your interpretations.",2016-08-02 19:26:56 UTC
218690,4.5,4,5,0679e563-d50f-49f5-b5ce-946bc9b86028,135518,You have explained your choice of discovery technique and the settings chosen. I suggest to include screenshot images to provide evidence of the result.,The description seems correct even though the result cannot be seen. I suggest to provide screenshots.,"You have mentioned conformance checking, but there is no evidence of the result and no interpretation. Your last three sentences were copy-pasted from the lecture slides. I suggest to include screenshots of the results, to discuss and interpret your findings, and to make your answers very specific for the case.",2016-08-02 19:37:26 UTC
218692,4.5,4,5,0679e563-d50f-49f5-b5ce-946bc9b86028,135483,You have explained your choice of discovery technique and provided evidence of the result.,There is no verbal interpretation of the resulting process model apart from the screenshot. I suggest to discuss and interpret the quality dimensions and possibly compare the results of two or more discovery techniques.,No answer has been given to that question.,2016-08-02 19:44:03 UTC
218706,4.5,4,5,d5d2073f-b72c-4e16-a30e-ede8d778c194,135686,"Yes, however I disagree on the use of ""Send Fine+complete"" as an event marking the end of the process. My analysis suggests that there are 2 primary paths in the process: 
1. Create Fine followed by Payment 
2. Send Fine marks the start of a process to collect payment. ","Yes, but see my comments above.",Yes,2016-08-02 21:46:24 UTC
218707,4.5,4,5,d5d2073f-b72c-4e16-a30e-ede8d778c194,135692,"I cannot access the diagram(s) as they are on Microsoft One Drive. I can see a lot of analysis, but not how David bases it on.",I cannot tell from the provided information.,I cannot tell from the provided information.,2016-08-02 21:49:55 UTC
218711,4.5,4,5,445987b6-5f5d-4645-8653-4076e34ed82a,135677,"Good analysis and use of discovery techniques. Another interesting approach is to explore the log visualizations and look at the most common traces (event log visualization). Also if you look at the dot chart you will see that years go from 2000 to 2013. A long time !!. Filter log on event and pick a late year. Check the most common traces again. Same for an early year. Also worth running the visual miner on a late and an early year and checking the Petri, numbers of activities and most common paths for different years. ","Yes, well understood. ",yes. Interesting to run different years against the model for conformance checking. ,2016-08-02 23:11:18 UTC
218715,4.5,4,5,445987b6-5f5d-4645-8653-4076e34ed82a,135693,"A very detailed and well thought analysis. Looks like you followed the prescribed methods and understood them well. Interestingly I was cutting corners and came to different conclusions. 

If you use the Log Visualiser and Inductive Visual Miner things may look different. From the Log Visualiser you will see the most common traces.  However, the logs cover 2000 to 2013 and processes can change radically over such a long period. Use filter on event attributes to pick up a later year. Check with Log Visualiser and Visual Miner. Do the same for 2000. 2013 is only 6 months but the processes look different again.   ",Yes,Yes,2016-08-02 23:55:34 UTC
218725,4.5,4,5,0679e563-d50f-49f5-b5ce-946bc9b86028,135693,"Good analysis with various discovery techniques. A suggestion might be to filter out all events associated with appeals, since they are very rare. This considerably simplifies the process model.","Yes, interpretation even went beyond the available data.","Yes, the screenshot shows conformance and trace fitness.",2016-08-03 07:05:48 UTC
218778,4.5,4,5,83ee7ae7-f769-4336-a19d-aea944464536,135686,"She explained very well the filtering options she had chosen with the Simple Heuristics filtering application.
She explained the choice of Inductive Miner as it provides a sound model.
Because of her choice of filtering, the model does not show the appeal process fully. For instance it does not explain why there is a penalty.
Overall, she showed very good understanding of the process and has chosen the appropriate discovery technique.","Yes, she interpreted implicitly.
For example, she explained she excluded events relating to the Appeals, so her model does not explain this part of the processing","Yes, conformance checking performed.
She didn't provide the global statistics to confirm that there is 100% move-model fitness.
However, she showed that she understood what she was doing.",2016-08-03 13:07:54 UTC
218781,4.5,4,5,83ee7ae7-f769-4336-a19d-aea944464536,135518,"He wrote that he had chosen the inductive visual miner.
I think he meant the inductive miner?
However, he didn't provide any evidence of his work.",He didn't discuss this.,"Yes, he stated that he had performed this task.
However, he didn'' provide any evidence for it.",2016-08-03 13:14:34 UTC
218783,4.5,4,5,83ee7ae7-f769-4336-a19d-aea944464536,135601,I couldn't assess because there are no details provided.,I couldn't assess because there are no details provided.,I couldn't assess because there are no details provided.,2016-08-03 13:23:59 UTC
218785,4.5,4,5,83ee7ae7-f769-4336-a19d-aea944464536,135677,"Yes, Frank evaluated 3 miners and conclude that the inductive miner gives the best result.
He experimented with noise level setting as well with Inductive Miner.
","The resulting model is interpreted implicitly.
He compared the model from Heuristics Miner with that of the Inductive Miner.","Yes conformance checking was executed for models derived with Heuristic Miner and Inductive miner.
He experimented further with other plug-in and noise level.
He quoted some Precision statistics which I am not familiar, so I cannot comment on it.
Overall, he has good understanding of the model.",2016-08-03 13:40:18 UTC
218786,4.5,4,5,83ee7ae7-f769-4336-a19d-aea944464536,135692,I couldn't review because I don't have access to microsoft onedrive.,I couldn't review because I don't have access to microsoft onedrive.,I couldn't review because I don't have access to microsoft onedrive.,2016-08-03 13:43:41 UTC
218788,4.5,4,5,83ee7ae7-f769-4336-a19d-aea944464536,135693,"Yes, he had used the Inductive Miner.
Prior to that he used the Heuristics Filter to focus more specific events.
He also performed additional mining using Heuristic Net.",He interpreted the model with comments on where the potential bottlenecks for the given information available.,"Yes, conformance testing was done.
He did not explained the result directly but provided snapshots of the results.
He also did Performance/Conformance analysis.",2016-08-03 13:55:57 UTC
218790,4.5,4,5,83ee7ae7-f769-4336-a19d-aea944464536,135483,"Yes, he used the Inductive miner, used standard settings and explained his choice.",He did not provide information on this.,He did not provide information on this.,2016-08-03 13:59:10 UTC
218826,4.5,4,5,b7b6e6e7-7606-41d8-8df9-89d1813ec25d,135736,"Yes. I would like to highlight pros and cons of this part of work:
Pros:
* the log was explored in details with a lot of examples and interesting suggestions
* an appropriate miner was chosen (Inductive learner) for building the resulting model
* additional miners were tried

Cons:
* reasoning about filtering the log just to avoid processing overhead doesn't sound convincing. I think the goal of the assignment is to build a correct model, not to save some time. 
* not clear why a period since 2010 is selected. Other options like filtering a general behavior, or filtering randomly over time, or splitting for crossvalidation look more appropriate
* the resulting model has an unobserved in the log option to skip the first state ""Create Fine""; apparently because the filtering by  timestamps of events made some traces incomplete.",Yes it has been interpreted correctly with useful recommendations for owners of the process.,Everything has done correctly except the following: conformance checking is performed using the filtered log and not using the full log. I think correct scores of fitness have to be calculated using the full log.,2016-08-03 17:27:38 UTC
218830,4.5,4,5,cb142e5d-7ba3-460e-bc5c-d9574537cf02,135756,"I feel that the process discovery technique was appropriate and the reason for this choice, and for chosing the settings described, are explained clearly. I thought the first picture, showing the three different types of traces was very useful in showing the paths those traces take, and also made clear what proportion of traces each applied to.","I feel that the interpretation of the process model is correct, as it quite clearly shows the three ways fines are processed, and the discussions of how these relate to real-world scenarios seem realistic, as well as making clear that there is no obivious real-world scenario for why some seem to stop following the sending of a fine. ","I felt it was an interesting approach to check conformance against the full log rather than the filtered data, but I feel this was useful as it does show how well conclusions drawn from the filtered log fit against the whole. From the conformance checking results shown in the picture, I feel it has been correctly interpreted.",2016-08-03 18:26:15 UTC
218834,4.5,4,5,b7b6e6e7-7606-41d8-8df9-89d1813ec25d,135768,"Yes, everything have chosen appropriate and explained well. 

I don't know do we actually need ""Noise threshold: 0.20"" because the filtered log don't contain any noise.",Yes the resulting model is interpreted correctly.,"Yes conformance checking has performed and interpreted correctly. 

But I'm not sure is it the best way to measure fitness on a filtered log by which the model was discovered. I think only incomplete traces should be filtered out for conformance checking, otherwise we don't get a picture how the discovered model fits into the whole observed behavior.",2016-08-03 19:25:58 UTC
218843,4.5,4,5,b7b6e6e7-7606-41d8-8df9-89d1813ec25d,135686,"Yes the learner has chosen appropriate technique, correct settings and explanations.
If I calculated correctly the filtered log contains ~97.7% of the full log. As I understand in general the resulting model built by the full log may be overfitted or too complex. I would suggest to filter out infrequent traces.",Yes it has been interpreted correctly.,"Yes it has performed and interpreted correctly. 
",2016-08-03 20:38:01 UTC
218861,4.5,4,5,08f67194-e6a4-4d35-9991-02f1bab5ebe3,135780,"Yes, learner has used the inductive miner and explained why it was chosen.",process model appear to be correctly interpreted. Although there are no clear end points and so loops.,conformance checking is interpreted correctly with the result of not being very confident in the model.,2016-08-04 09:16:59 UTC
218866,4.5,4,5,8809c994-c85f-4836-90a7-51dd9bb28eed,135798,"The decision to filter the events leaving the fine, payment and credit collection events could be a good strategy to model the underlying main process but this is hampered by the inclusion of the 'Receive appeal result from prefecture' event which seems to be part of a more complex appeal process. The chosen process discovery technique is not stated. 
",Given the restricted number of events modelled and the inclusion of the single appeal event the model reflects these events.,Conformance checking has been carried out and as stated the model does seem to conform to the events chosen.,2016-08-04 09:56:09 UTC
218867,4.5,4,5,ea87a5a4-5c66-4b31-bd71-c2e7245e96ad,135802,"Martin has put a lot of effort in understanding the data using dotted chart and subsequently applying appropriate criteria for filtering. 
Similarly for process discovery he verified the use of inductive mining to produce a sound process by comparing with results obtained using other miner plugins. Martin has thus explained his choice of using the discovery technique very well. He also mentions the use of default setting used with the inductive miner due to unfamiliarity with the other settings in ProM - I found this to be case as well in my assignment.","Martin has interpreted the resulting model in detail reflecting on the output of the models discovered using various miner plugins. The comments on separate processes are quite insightful. However, I think the events making up the ""Appeal Process"" have a low frequency and may not contribute significantly to any process enhancement effort.","Yes conformance checking has performed and interpreted correctly. An elaboration of the assertion ""The conformance analysis indicates that the Inductive Miner model is satisfactory."" would have added more value.
In summary, a very good write up showing a great deal of valuable insight.",2016-08-04 10:40:09 UTC
218870,4.5,4,5,8809c994-c85f-4836-90a7-51dd9bb28eed,135780,An appropriate process discovery technique was chosen and the reason for the selection of a low threshold explained.,Mention was made of the fact that the model included exceptions and reflected  a real life view of the system.,Conformance checking has been carried out and sensible conclusions drawn fro the results.,2016-08-04 11:00:43 UTC
218873,4.5,4,5,eff2556d-3a24-4f48-ba1a-8c1cca735769,135768,Excellent work and has explained everything extremely well,I believe that this is correct although I actually have no real way to check as my own computer is down.,Again I believe this to be extremelycorrectalthough my checking has been very much manual.,2016-08-04 11:54:30 UTC
218874,4.5,4,5,8809c994-c85f-4836-90a7-51dd9bb28eed,135736,"A very detailed and through report.

Several process discovery techniques were investigated on a subset of the data set and the most effective method chosen.
",A detailed and accurate interpretation was carried out.,Detaled conformance checking was executed sensible conclusions were drawn.,2016-08-04 12:07:08 UTC
218888,4.5,4,5,a80daa1a-901e-4aaa-995a-498c307335e4,135809,"I'm sorry to see that haven't been able to complete the assignment. I had troubles myself also switch between a laptop from work and my Mac at home.

I hope you still had the change to do something similar as this exercis but with a smaller dataset.

Best of luck with other mining activities!

Cheers Remco",N/A,N/A,2016-08-04 14:25:57 UTC
218900,4.5,4,5,a80daa1a-901e-4aaa-995a-498c307335e4,135802,"Yes.
I've learned a lot from reading Martin's assignment.
Very clear and valuable for me as a beginner for the future.


Martin's exercise is very precise oriented and less general.","To my knowledge Yes, but I'm a beginner in mining and still awaiting my review.","To my knowledge Yes, but I'm a beginner in mining and still awaiting my review.

Sorry that I couldn't be more helpful.",2016-08-04 15:00:22 UTC
218906,4.5,4,5,8809c994-c85f-4836-90a7-51dd9bb28eed,135823,"The reasons for excluding ""appeal"" events are explained and allow the basic process to be investigated. Interesting to see the results of amending the values used in the analysis.",The model has been correctly interpreted. ,Conformance results are interpreted sensibly and exceptional results highlighted. ,2016-08-04 15:45:59 UTC
218915,4.5,4,5,e8fb1527-54ca-4bc1-a4a5-7b45af40cf37,135823,"Initial filtering was well understood and settings were manipulated carefully to simplify process to a level where model could be mined at a manageable level.
Process mining with inductive mining was used - why was this preferred?  did you try any other methods?  (When I tried Alpha Miner and Inductive Mining, the Inductive Miner gave a better process map with definite start and end points, but changing the noise filter gave better results with noise setting 0.0 rather than default of 0.2)","Did you analyse the model for definite start and end points and no tokens left in the system once process was complete?  I think inductive mining guarantees this result, so analysis was probably not necessary.","Good conformance checking using move on model / move on log analysis and trace fitness.  More in depth analysis pinpointed the areas of the model where this occurred.
Good analysis of bottlenecks and reasons for them in the ""Time between transitions"" analysis.  Zooming in and seeing 3385 times activity was observed but not expected was a good insight and led to the sound conclusion that model was good for an overview but not very precise.",2016-08-04 16:38:00 UTC
218921,4.5,4,5,cb9fae65-411c-40b2-ae73-b992ef5914e2,135840,Good choice of filter to remove traces which don't seem to be complete.  Good choice of discovery technique to produce sound solution.  Choices have been explained well.,Process model has been checked against each quality value and found to be good.,Conformance has been checked and found to be good.,2016-08-04 17:58:10 UTC
218926,4.5,4,5,c86ad385-f5cf-40c7-bdc2-dbbce2285888,135842,"I think this is a good choice of process discovery technique.  Good choice of end events becouse you eliminate unfinished traces. Inductive Visual Miner is interesting choice.  I think you could keep more event classes for process analysis. You search for the best process model solution, good thinking. ","Process model has been checked against filtered data set and it is good replay fitness. However, I think it's better to check conformance of model against anfiltered event log. 
 ","Partially, process model is sound becouse of inductive miner, and replay fitness is very good. Also becouse 6 event classes model has excellent Simplicity. Precision and Generalizaion shoud be reviewed.",2016-08-04 18:47:09 UTC
218938,4.5,4,5,cb142e5d-7ba3-460e-bc5c-d9574537cf02,135798,"I'm not sure if the process discovery technique is appropriate, because, althought the filtering has been explained, there are no details of which algorithm was used to discover a Petri Net, or alternative view of the process.",Although the process map can be seen in the picture of the replay result from the conformance checking there is no interpretation of it.,The conformance checking appears to have been executed correctly because there is a picture of the replay result. The result of 98% fitness has been correctly identified from this.,2016-08-04 20:56:13 UTC
218954,4.5,4,5,83ee7ae7-f769-4336-a19d-aea944464536,135840,"Yes, Dejan has chosen the simple heustristic filter and explained why he did it.
He had chosen the Inductive Miner and gave the reasons why.
He set noise threshold to 0 to get a good fit.
Unfortunately, this flickr links report page was not found","Yes, he commented the model is of lasagna type.","Yes, conformance checking was executed.
He provided a screen shot of the output.
He had evaluated the model meet the quality criteria of simplicity, soundness, generalization and replay fitness. He commented the model achieves high precision and has no 'Move on model' only deviations.",2016-08-05 04:24:21 UTC
218955,4.5,4,5,83ee7ae7-f769-4336-a19d-aea944464536,135842,"He used 3 mining algorithms, starting with Alpha miner, then  Inductive Miner and progressed to Inductive Visual miner to arrive with a model he is happy with.","Yes, he commented on the efficacy of each model derived using the various algorithms.","Yes, he conducted conformance checking. However, he didn't provide evidence of it.
He asserts that the model has a trace fitness of 0.98.",2016-08-05 04:31:30 UTC
218986,4.5,4,5,c88979d9-1c88-46b7-8b38-e26b1f03680b,135756,Yes,Yes,Yes but the link is not the proper one so I can't check it,2016-08-05 13:51:25 UTC
218987,4.5,4,5,c88979d9-1c88-46b7-8b38-e26b1f03680b,135809,No,No,No,2016-08-05 13:53:00 UTC
219005,4.5,4,5,be38ce5b-d528-48d6-9147-e63d51b9f7f2,135897,The learner explains why he has chose the algorithm bu has not explain the reasons for the  the settings. Altough the process technique is appropiate.,The process model is not explainde,Conformance checking has been done correctly buy it is not interpreted,2016-08-05 16:14:53 UTC
219009,4.5,4,5,be38ce5b-d528-48d6-9147-e63d51b9f7f2,135768,definitely yes. ,"The model has been explained and interpreted correctly.
",Conformace checking definitely,2016-08-05 16:48:31 UTC
219013,4.5,4,5,16460c57-85b3-4f41-b125-f6e04ecd44fa,135912,Good,Good,Good,2016-08-05 17:00:49 UTC
219015,4.5,4,5,a6a9e2fd-694d-4579-90fa-4f3feb480dc6,135919,"Jessie.

Sorry, but I'm unable to view your assignment, other than the first five sentences. There appears to be no link that I can use, or scroll the window to view more. (Strange, since my comment seems to be able to scroll.)

For this reason, I'm unable to provide any comments upon your report.

My apologies, but there's little I can do.
Mike.",This intentionally left blank.,This intentionally left blank.,2016-08-05 17:19:33 UTC
219017,4.5,4,5,a6a9e2fd-694d-4579-90fa-4f3feb480dc6,135912,"Anne.

It seems that you've run through the whole suite of Miners covered in the course. Which Miner did you think produced the best (in your opinion) result?

I notice that you've also produced Petri Nets on both the filtered and unfiltered Event Logs. The filtering has obviously simplified the Petri Net, and possibly improved the Net, since the unfiltered fitness is around 0.4. However, I can't see what the filter you applied was. There are no parameters listed.

Was it based upon Event Name? Looking at your Inductive Miner output, I see a Petri Net similar to the one that I got. ","Unable to comment, since there is no analysis observations.","The conformance appears to have been performed, since I have viewed the output of the Inductive Visual Miner. It would've been useful if I could see some of the pertinent timing data to compare sojourn times of the 'bottleneck' Events.

Did you manage to run the Timing Simulation? I know it can hammer some machines, but if you were able it might show the routes and delays in some Events. This might identify opportunities for re-engineering the process.",2016-08-05 17:41:58 UTC
219030,4.5,4,5,3ba76a9c-9346-4c78-aa87-d709e8818e75,135921,"Very extensive report that covers all elements required. Unfortunately the links within the document appear not to have been shared publicly.
However, the document contained enough detail! Very good work.",Yes and described in detail.,"Yes, focus on trace fitness with a correct interpretation.",2016-08-05 19:27:04 UTC
219050,4.5,4,5,3ba76a9c-9346-4c78-aa87-d709e8818e75,135897,You have explained why you went for the fuzzy miner but you did not say what filter you had applied to the data before. In line with the assignment where you have to do conformance checking this is not the best option. You have explained what settings you made after the process model was generated to improve the visualisation. It would have been better if you had also specified your settings during the generation of the model.,"You have included the visualisation of the model, but did not interprete it.","You have included the visualisation of the conformance check. However, you did not interprete it and it is unclear to me against which process model the conformance check was done.",2016-08-06 06:23:57 UTC
219051,4.5,4,5,3ba76a9c-9346-4c78-aa87-d709e8818e75,135919,No assignment available?! Only the steps that should be taken in the assignment.,Not available.,Not available.,2016-08-06 06:25:46 UTC
219052,4.5,4,5,8809c994-c85f-4836-90a7-51dd9bb28eed,135930,Interesting choice of end events for the heuristic filter and appropriate process discovery technique used. ,Process model as been interpreted correctly.,Conformance checking figures impressive.,2016-08-06 06:31:29 UTC
219071,4.5,4,5,74d7b6c7-42d9-4797-93d8-e1b5e5c96a13,135930,"Hallo Agnes.
These are my comments on your assignment. I can understand the choice for the Inductive miner as a process discovery technique because it guarantees sound models. The use of the default settings is understandable. Only when there is time for more experimenting you could try some other settings. The noise threshold for example. With noise reduction you get slightly complexer models, but the replay strength is greater, resulting in a better overall trace fitness. The choice for the filtering on simple heuristics with the states Payment, Send for Credit Collection and Notify Result Appeal to Offender is a properly justified.","The process discovery step results in a rather complicated model. But what strikes me most in your model is that everybody's case in the end has to go through the transition ""Send_for_Credit_Collection"" before reaching the end state. Isn't that a little bit weird? Even if I pay my fine, my case is send to Credit Collection (the bailiff)? Maybe you should look at this a little bit closer.  I did the process mining with your filtered log file (simple heuristics, the three named end events, and all the other events included in the log file). The Petri net I found was complicated,  but it showed the three named end events as possible end events. ","According to your picture of the Inspector view, the trace fitness is indeed 100%. Did you set the noise threshold in the discovery process at 0.0? In this project of the Road Traffic Fine Management Process, I have never obtained models with trace fitnesses of 100% unless I set the noise threshold at 0.0. 
I enjoyed doing this review and I wish you good luck with process mining (and of course in other areas as well).

Maarten Luykx",2016-08-06 13:02:55 UTC
219087,4.5,4,5,74d7b6c7-42d9-4797-93d8-e1b5e5c96a13,135921,"Hallo Mike,

I am very impressed by the hard work you've put into this investigation. I think that the application of filter procedures on the event log that you have employed are well argued. 
In retrospect I think that I've made it too easy for myself, by filtering out all cases for appeal (judge and prefecture). You did not, my complements. The choice for the Inductive process miner is understandable. The parameters look like the usual ones. Did you consider setting the noise threshold to 0.0? It guarantees trace compliance at not to great a cost. The resulting model you found looks well structured. ",I believe you did. The bottlenecks you found were visible in the most models I saw. The accumulation of cases before sending them to the Collection Credits agency  is responsible for the biggest bottleneck. ,"You've gone to great lengths to explain what is happening on performance and conformance testing. My compliments. This is an outstanding report. You also point to the Create_Fine and the Payment events as bottlenecks causing delays. If you set the noise threshold to 0.0 in the induction miner you will discover that Payment can be a loop event. Allowing the offenders to pay their fines in terms? I don't know, may be it is an organizational thing.  What about the create_fine event? Indeed there are many cases, but the sojourn time for this element is 0.0 as the element inspector in the sequence pattern manifestation shows. I saw that you used the inductive visual miner. That gives you good insight, but for the performance analysis I prefer the replay tool for Performance/Conformance analysis.

Mike, I wish you good luck with process mining, and in other areas as well.

Maarten ",2016-08-06 14:15:47 UTC
219106,4.5,4,5,8809c994-c85f-4836-90a7-51dd9bb28eed,135973,"Dong Yup Yi chose an appropriate process discovery technique and filtered the data set to provide a more easily processed subset.

",The process model was interpreted correctly and the limitation of using a time limited subset was recognised.,Conformance checking was executed and interpreted correctly. ,2016-08-06 16:11:25 UTC
219108,4.5,4,5,8809c994-c85f-4836-90a7-51dd9bb28eed,135960,Maarten’s is by far the most through and detailed assignment I have seen so far. Interesting discussion of the usefulness of filtering and the changes in results due to varying the noise threshold in the inductive miner.,"Very detailed interpretation of the process model especially the significance of the Payment event ""looping""","Conformance checking was thoroughly executed and interpreted.  Maarten’s comments on the Send_for_Credit_Collection batch-process reminded me that I read somewhere that sometimes organisations auction off debt. Debt collectors bid for a parcel of debt, they then keep what they can collect.


 ",2016-08-06 16:24:38 UTC
219142,4.5,4,5,4a34c7dc-dd27-4dc9-9670-ac08675f1504,135980,YES !  Excellent work !,YES ! Excellent.,Yes! Excellent.,2016-08-07 02:58:38 UTC
219143,4.5,4,5,4a34c7dc-dd27-4dc9-9670-ac08675f1504,135960,Yes ! Excellent and detailed analysis and explanations.,Yes ! Excellent and detailed analysis and explanations.,Yes ! Excellent and detailed analysis and explanations.,2016-08-07 03:10:23 UTC
219144,4.5,4,5,4a34c7dc-dd27-4dc9-9670-ac08675f1504,135973,The student could have done a much better analysis and interpretation if he had a laptop of higher performances.,The student could have done a much better analysis and interpretation if he had a laptop of higher performances.,The student could have done a much better analysis and interpretation if he had a laptop of higher performances.,2016-08-07 03:20:10 UTC
219145,4.5,4,5,4a34c7dc-dd27-4dc9-9670-ac08675f1504,135518,The analysis is too brief and general.But it seems to me that the learner is very skilled and could have made a better work if he had just a little more time !,The analysis is too brief and general.But it seems to me that the learner is very skilled and could have made a better work if he had just a little more time !,The analysis is too brief and general.But it seems to me that the learner is very skilled and could have made a better work if he had just a little more time !,2016-08-07 03:28:25 UTC
219146,4.5,4,5,7135401e-9c83-45dc-a30d-0e2ce73924ae,136016,He chose an appropriate process discovery technique and filtered the data set to provide a more easily processed subset. chose an appropriate process discovery technique and filtered the data set to provide a more easily processed subset. ,The process model was interpreted correctly and the limitation of using a time limited subset was recognised.,Conformance checking was executed as the same as my result.,2016-08-07 03:34:09 UTC
219147,4.5,4,5,7135401e-9c83-45dc-a30d-0e2ce73924ae,135980,"His analysis is excellent and very detail.
His result will be a good reference in my job.","He found 2 process models through ""Fuzzy Miner"" and ""Inductive Miner"".
He also analyzed the 5 most frequent traces in log visualizer.
I think this is very helpful for analyzers to undertstand what they will do.","His conformance checking showed 99.5% fit.
He also analyzed all of the wrong movement events.",2016-08-07 03:44:54 UTC
219148,4.5,4,5,7135401e-9c83-45dc-a30d-0e2ce73924ae,135809,"I understand what you have. 
Because of My laptop's performance, I couldn't do the assignment easily.
But many peers encourged me to solve the assignment according to my situation.","I understand what you have. 
Because of My laptop's performance, I couldn't do the assignment easily.
But many peers encourged me to solve the assignment according to my situation.","I understand what you have. 
Because of My laptop's performance, I couldn't do the assignment easily.
But many peers encourged me to solve the assignment according to my situation.",2016-08-07 03:53:16 UTC
219156,4.5,4,5,efc67c7c-32cf-4256-8024-2478fb907ced,136016,"Looks good to me

(my guess is that you kept the events default suggested events - third selection - by the heuristic mine-. By doing that you removed the  appeal related events, 
Also common sense suggests that ""notify appeal result to offender"" and ""appeal to judge complete"" might be valid end points of the process - second heuristic miner selection-)","Looks good to me

two remarks
1) payment can be followed by one or more payment events (payments in installments is allowed). So there should be a payment loop 
2) because the heuristic miner filtered out all the appeal related events, all related activities are missing form your model. Your model only contains only 5 of the 11 activities).","Looks OK to me.

",2016-08-07 07:20:11 UTC
219157,4.5,4,5,efc67c7c-32cf-4256-8024-2478fb907ced,135802,"Yes (you made well reasoned choices, compliments)

I fully agree with you that there are some many setting in ProM that it is hard to know that you made  the right choices (that would be the subject for an advanced ProM-use course)","Yes

Remark
The payment activity can be followed by one or more payments, that is missing in your model (it looks like conformance analysis does penalize this missing loop).",Yes,2016-08-07 07:30:14 UTC
219161,4.5,4,5,ad41088f-4e2e-40b8-ba10-0d659a0c1245,135692,"I think the learner has done a fine job here, providing some sound summary data and showing a good command of the tools.",I believe so.,"Yes, in my view",2016-08-07 09:10:53 UTC
219179,4.5,4,5,371e0349-bda4-40c5-822b-a58a50c968a1,136036,"I would've tried all of the filters first to make sure vital parts of the data were not left out such as the options to ""Add Fine"", ""Appeal to Judge"", etc. As those were left out I feel as though a heuristics filter might not have been the best choice.",Yes.,There was no conformance checking done.,2016-08-07 15:29:19 UTC
219181,4.5,4,5,371e0349-bda4-40c5-822b-a58a50c968a1,136026,Sure,More or less,Almost,2016-08-07 15:31:59 UTC
219202,4.5,4,5,4f569ae6-f04b-42e2-a74b-a6438f4982e2,136028,"I believe that yes the learner has chosen an appropriate process discovery technique, applied it well, and justified their choice in doing so.","Again, I believe that yes the learner has interpreted the process model resulting from their application of the discovery technique correctly.","Conformance checking appears to have been executed and interpreted correctly, the learner confident enough to have applied an iterative process to the application and interpretation.",2016-08-07 18:28:22 UTC
219214,4.5,4,5,8e2711b1-1eb9-48d7-8a4f-243190f517c9,136062,"The presentation of result is very orderly. The learner chose an appropriate process mining technique to check for conformance. 
Though, the Petri net reported (Figure 3) looks incorrect. There seems to be issues with completion of token with the Petri.
   
 ","The model interpreted change in quality of information over the years, which is correct, and possible introduction of new process or system.  
The suggestion of 3 variation is incorrect as shown from the incorrect petri net analysis. ",The conformance check was incorrectly interpreted possible due to the incorrect petri net used. ,2016-08-07 19:48:03 UTC
219223,4.5,4,5,8e2711b1-1eb9-48d7-8a4f-243190f517c9,136045,"The learner needs to apply more stringent and detailed filters and process technique. 
The choice were not explained clearly.  ","NO, 
resulting model did not get detailed explanation. ","Conformance checks was  not executed. Petri net was attached, but conformance check was not shown.  ",2016-08-07 20:33:35 UTC
219224,4.5,4,5,8e2711b1-1eb9-48d7-8a4f-243190f517c9,136026,Noted. Learners objective is only to get an idea of this toolset before seeing how it might be used ,Noted. Learners objective is only to get an idea of this toolset before seeing how it might be used ,Noted. Learners objective is only to get an idea of this toolset before seeing how it might be used ,2016-08-07 20:34:51 UTC
219316,4.5,4,5,4dfdf696-23d0-4b49-a1cb-f62f28b0e154,136069,Yes. All the procedures are well explained and detailed. He applied many of the programs recommend in the course.,Yes. The process is well represented by the results achieved.,Yes. His work is complete and well done. Congratulations.,2016-08-08 11:56:20 UTC
219336,4.5,4,5,4a8919eb-115f-443f-a754-4ae0e2bf3221,136045,entered my review and then lost it from looking at the links! You have used similar filtering as I did when doing this - had to change since my initial filtering left some traces without conclusion. However from later comments you appear to have filtered out parts of traces - I changed the filtering to just traces to ensure end-end completeness.,The process model looks similar to my memory of my complete process model (without filtering). Sorry I can't comment helpfully further,"The process fitness achieved using my filtering was far higher, this may be down to having complete traces. Were all the traces of a similar type/period? If you have incomplete data sets that will cause issues I guess. ",2016-08-08 13:54:04 UTC
219775,4.5,4,5,4a34c7dc-dd27-4dc9-9670-ac08675f1504,136177,"Yes, inductive miner for soundness.",Yes,Final result is a good match,2016-08-10 17:24:33 UTC
