\contentsline {section}{\numberline {1}Goal}{1}{section.1}
\contentsline {section}{\numberline {2}Progress}{1}{section.2}
\contentsline {subsection}{\numberline {2.1}Requirements}{1}{subsection.2.1}
\contentsline {subsection}{\numberline {2.2}Design and Architecture}{1}{subsection.2.2}
\contentsline {section}{\numberline {3}SEP Project}{2}{section.3}
\contentsline {section}{\numberline {4}Communication with Hilde}{2}{section.4}
\contentsline {section}{\numberline {5}Meetings Arrangement}{2}{section.5}
\contentsline {section}{\numberline {6}Other}{2}{section.6}
\contentsline {section}{Action List}{2}{section.6}
