\BOOKMARK [1][-]{section.1}{Goal}{}% 1
\BOOKMARK [1][-]{section.2}{Meeting points}{}% 2
\BOOKMARK [2][-]{subsection.2.1}{General}{section.2}% 3
\BOOKMARK [2][-]{subsection.2.2}{Specific}{section.2}% 4
