utm_source,utm_campaign,utm_medium,utm_term,utm_content,domain,enrolments,active_learners
None,None,None,None,None,direct/no referrer,416,124
None,None,None,None,None,www.futurelearn.com,136,31
None,None,None,None,None,www.google.co.uk,95,25
None,None,None,None,None,www.google.com,33,17
mooc-list,None,None,None,None,www.mooc-list.com,20,9
newsletter_broadcast,fl_november_2016,futurelearn_organic_email,starting_soon_3_november_2016,button,direct/no referrer,18,4
None,None,None,None,None,www.google.co.in,17,6
newsletter_broadcast,fl_december_2016,futurelearn_organic_email,01_12_2016_new_courses_for_the_new_year,text,direct/no referrer,15,3
None,None,None,None,None,www.google.nl,15,5
newsletter_broadcast,fl_november_2016,futurelearn_organic_email,starting_soon_3_november_2016,text,direct/no referrer,13,5
FL_DB,03_10_2016_FL_newsletter,crm,None,None,direct/no referrer,12,0
None,None,None,None,None,scholarship-positions.com,11,4
FL_DB,03_10_2016_FL_newsletter,crm,None,text,direct/no referrer,11,1
newsletter_broadcast,fl_december_2016,futurelearn_organic_email,01_12_2016_new_courses_for_the_new_year,button,direct/no referrer,11,2
Unknown,Unknown,Unknown,Unknown,Unknown,Unknown,10,3
None,None,None,None,None,www.bing.com,9,2
None,None,None,None,None,www.facebook.com,9,0
None,None,None,None,None,outlook.live.com,8,3
None,None,None,None,None,www.google.es,7,2
None,None,None,None,None,www.google.com.pe,7,1
FL_DB,15_06_2016_FL_newsletter,crm,None,text,scholarship-positions.com,6,2
None,None,None,None,None,www.qut.edu.au,6,2
None,None,None,None,None,www.google.fr,5,2
courses-feed,Courses feed,courses-feed,None,None,direct/no referrer,5,2
courses-feed,Courses feed,courses-feed,None,None,www.openculture.com,5,0
None,None,None,None,None,www.youtube.com,5,2
FL_DB,16_10_2016_FL_newsletter,crm,None,None,direct/no referrer,5,0
newsletter_broadcast,fl_november_2016,futurelearn_organic_email,25_11_2016_your_last_chance_to_learn_in_2016,text,direct/no referrer,5,1
None,None,None,None,None,www.google.gr,5,1
None,None,None,None,None,www.google.it,4,2
None,None,None,None,None,www.google.pl,4,2
None,None,None,None,None,www.google.ru,4,1
FL_DB,11_10_2016_FL_newsletter,crm,None,text,direct/no referrer,4,1
None,None,None,None,None,www.google.com.sa,4,3
FL_DB,15_06_2016_FL_newsletter,crm,None,text,direct/no referrer,4,1
newsletter_broadcast,fl_november_2016,futurelearn_organic_email,21_11_2016_your_last_chance_to_learn_in_2016,button,direct/no referrer,4,0
None,FocusCourses_October_2016,None,None,None,direct/no referrer,4,0
reed,FocusCourses_October_2016,site,None,secondary,direct/no referrer,4,0
None,None,None,None,None,m.facebook.com,4,2
FL_DB,16_10_2016_FL_newsletter,crm,None,text,direct/no referrer,4,0
None,None,None,None,None,www.surveymonkey.co.uk,4,0
None,None,None,None,None,www.google.co.za,4,1
None,None,None,None,None,www.win.tue.nl,4,3
newsletter_broadcast,fl_november_2016,futurelearn_organic_email,25_11_2016_your_last_chance_to_learn_in_2016,button,direct/no referrer,4,2
None,None,None,None,None,www.google.com.mx,4,2
totaljobs,FocusCourses_November_2016,solus,None,None,direct/no referrer,4,2
None,None,None,None,None,www.google.ie,4,2
None,None,None,None,None,www.google.co.kr,3,1
BC_IELTS_takeielts,Understanding_IELTS_Sept15,webbanner,None,None,takeielts.britishcouncil.org,3,1
class_central,FocusCourses_September_2016,text_ad,None,primary,www.class-central.com,3,0
course_notice,Course Notice,email,None,None,direct/no referrer,3,1
facebook,FocusCourses_October_2016,social_media,None,primary,www.facebook.com,3,0
FL_DB,11_10_2016_FL_newsletter,crm,None,None,direct/no referrer,3,0
newsletter_broadcast,fl_november_2016,futurelearn_organic_email,21_11_2016_your_last_chance_to_learn_in_2016,text,direct/no referrer,3,0
newsletter_broadcast,fl_november_2016,futurelearn_organic_email,starting_soon_3_november_2016,text,outlook.live.com,3,0
newsletter_targeted,fl_december_2016,futurelearn_organic_email,21_12_2016_new_tech_courses,text,direct/no referrer,3,0
None,None,None,None,None,duckduckgo.com,3,2
None,None,None,None,None,ma3loma10.com,3,0
None,None,None,None,None,t.co,3,0
None,None,None,None,None,www.google.be,3,1
None,None,None,None,None,www.google.ch,3,2
None,None,None,None,None,www.google.com.br,3,2
None,None,None,None,None,www.google.com.vn,3,0
None,None,None,None,None,www.google.de,3,1
None,None,None,None,None,www.google.hu,3,2
None,None,None,None,None,www.google.se,3,0
totaljobs,FocusCourses_November_2016,solus,None,primary,direct/no referrer,2,2
None,None,None,None,None,www.mooc-list.com,2,1
None,None,None,None,None,www.msn.com,2,1
None,None,None,None,None,www.google.dk,2,2
None,None,None,None,None,www.google.com.au,2,0
None,None,None,None,None,www.google.com.ph,2,1
None,None,None,None,None,r.search.yahoo.com,2,1
None,None,None,None,None,www.reddit.com,2,1
course_notice,Course Notice,email,None,None,outlook.live.com,2,0
None,None,None,None,None,www.google.ca,2,0
None,None,None,None,None,www.google.co.jp,2,0
newsletter_broadcast,fl_december_2016,futurelearn_organic_email,01_12_2016_new_courses_for_the_new_year,button,outlook.live.com,2,0
None,None,None,None,None,www.google.com.hk,2,1
None,None,None,None,None,www.britishcouncil.rs,2,1
None,None,None,None,None,www.google.com.ua,2,0
FL_DB,03_10_2016_FL_newsletter,crm,None,image,direct/no referrer,2,0
newsletter_broadcast,fl_november_2016,futurelearn_organic_email,25_11_2016_your_last_chance_to_learn_in_2016,button,outlook.live.com,2,1
None,None,None,None,None,www.google.pt,2,0
None,None,None,None,None,www.google.rs,2,1
newsletter_broadcast,fl_november_2016,futurelearn_organic_email,starting_soon_3_november_2016,button,www.futurelearn.com,2,0
None,None,None,None,None,www.google.co.th,2,2
BC_Egypt_Facebook,Understanding_IELTS5_Oct16,social,None,None,direct/no referrer,2,0
None,None,None,None,None,www.google.ae,2,0
newsletter_targeted,fl_december_2016,futurelearn_organic_email,21_12_2016_new_tech_courses,button,direct/no referrer,2,0
facebook,fl_october_2016,futurelearn_cpc_social,None,None,m.facebook.com,2,1
newsletter_targeted,fl_december_2016,futurelearn_organic_email,21_12_2016_new_tech_courses,text,outlook.live.com,2,0
None,None,None,None,None,www.google.com.ng,2,1
None,None,None,None,None,www.acunetix-referrer.com,1,0
None,None,None,None,None,www.auckland.ac.nz,1,0
None,None,None,None,None,www.baidu.com,1,0
FL_DB,15_06_2016_FL_newsletter,crm,None,text,org.telegram.messenger,1,0
None,None,None,None,None,www.blackenterprise.com,1,0
None,None,None,None,None,www.britishcouncil.it,1,0
None,None,None,None,None,www.britishcouncil.org.ua,1,0
None,None,None,None,None,www.britishcouncil.or.tz,1,0
None,None,None,None,None,www.businessbecause.com,1,0
None,None,None,None,None,www.careergirldaily.com,1,0
None,None,None,None,None,www.class-central.com,1,0
None,None,None,None,None,www.duolingo.com,1,0
None,None,None,None,None,www.educationuk.org,1,0
None,None,None,None,None,www.elu.london,1,0
FL_DB,15_06_2016_FL_newsletter,crm,None,text,m.facebook.com,1,0
FL_DB,13_09_2016_FL_newsletter,crm,None,text,direct/no referrer,1,0
None,None,None,None,None,www.gla.ac.uk,1,1
BC_Egypt_Facebook,Understanding_IELTS5_Oct16,social,None,None,www.facebook.com,1,0
Social,FBSignUpButton,Facebook,SignUpButton,None,www.facebook.com,1,0
None,None,None,None,None,www.google.cm,1,0
None,None,None,None,None,www.google.co.bw,1,0
None,None,None,None,None,www.google.co.il,1,0
FL_DB,04_07_2016_FL_newsletter,crm,None,text,direct/no referrer,1,1
Adzuna,Adzuna_promotionNovTeam,web,FL_courses,None,direct/no referrer,1,0
FL_DB,03_10_2016_FL_newsletter,crm,None,text,outlook.live.com,1,0
None,None,None,None,None,www.google.com.ar,1,1
None,None,None,None,None,www.google.com.bo,1,0
strathclydehp,partnerwebsitelinks,link,None,None,direct/no referrer,1,0
None,None,None,None,None,www.google.com.co,1,1
None,None,None,None,None,www.google.com.eg,1,1
None,None,None,None,None,www.google.com.lb,1,1
None,None,None,None,None,www.google.com.my,1,0
FL_blog,FL_blog,blog,None,None,about.futurelearn.com,1,0
None,None,None,None,None,www.google.com.pk,1,0
fexcoroi.groupscheme.com,groupschemes,feed,None,None,group-partnership.com,1,0
None,None,None,None,None,www.google.com.sg,1,0
None,None,None,None,None,www.google.com.sl,1,0
None,None,None,None,None,www.google.com.tr,1,0
None,None,None,None,None,www.google.com.tw,1,0
BC_Egypt_Facebook,Understanding_IELTS5_Oct16,social,None,None,m.facebook.com,1,0
facebook,Share Links,futurelearn-just_enrolled,None,None,www.facebook.com,1,0
None,None,None,None,None,www.google.cz,1,0
None,None,None,None,None,www.google.ee,1,1
email,Share Links,futurelearn-run_details,None,None,direct/no referrer,1,0
courses-feed,Courses feed,courses-feed,None,None,ain.ua,1,0
Twitter,session3,Twitter,None,None,t.co,1,1
class_central,FocusCourses_October_2016,text_ad,None,primary,www.class-central.com,1,0
class_central,FocusCourses_November_2016,text_ad,None,primary,www.class-central.com,1,1
None,None,None,None,None,www.google.lk,1,0
None,None,None,None,None,www.google.lv,1,0
blog,fl_november_2016,futurelearn_organic_blog,None,None,direct/no referrer,1,0
blog,fl_november_2016,futurelearn_organic_blog,None,holidays,about.futurelearn.com,1,0
BC_Palestine_Facebook,Understanding_IELTS5_Oct16,social,None,None,www.facebook.com,1,0
None,None,None,None,None,www.google.tt,1,1
None,None,None,None,None,wwwhatsnew.com,1,1
None,None,None,None,None,www.keio.ac.jp,1,0
None,None,None,None,None,www.linkedin.com,1,0
None,None,None,None,None,www.netvibes.com,1,1
None,None,None,None,None,www.petforums.co.uk,1,0
None,None,None,None,None,www.problogger.net,1,0
BC_Nigeria,SocEnt_Nov16,social,None,None,www.britishcouncil.org.ng,1,0
None,None,None,None,None,www.so.com,1,1
None,None,None,None,None,www.springer.com,1,1
None,None,None,None,None,www.stat.auckland.ac.nz,1,0
BC_LE_Facebook,English_workplace1_Nov16,social,None,None,www.facebook.com,1,0
None,None,None,None,None,www.themuse.com,1,1
None,None,None,None,None,www.uio.no,1,0
None,None,None,None,None,www.uow.edu.au,1,0
newsletter_broadcast,fl_november_2016,futurelearn_organic_email,25_11_2016_your_last_chance_to_learn_in_2016,image,direct/no referrer,1,0
newsletter_broadcast,fl_november_2016,futurelearn_organic_email,21_11_2016_your_last_chance_to_learn_in_2016,button,outlook.live.com,1,1
newsletter_broadcast,fl_november_2016,futurelearn_organic_email,starting_soon_3_november_2016,button,outlook.live.com,1,0
newsletter_broadcast,fl_november_2016,futurelearn_organic_email,starting_soon_3_november_2016,image,direct/no referrer,1,1
newsletter_broadcast,fl_december_2016,futurelearn_organic_email,19_12_2016_how_to_make_the_most_of_the_holidays,text,direct/no referrer,1,0
None,None,None,None,None,www.wecliqued.com,1,0
BC_India_website,Understanding-IELTS-MOOC5,web,None,None,www.britishcouncil.in,1,0
newsletter_broadcast,fl_december_2016,futurelearn_organic_email,01_12_2016_new_courses_for_the_new_year,text,outlook.live.com,1,0
None,FocusCourses_November_2016,None,None,None,direct/no referrer,1,0
None,FocusCourses_September_2016,None,None,None,direct/no referrer,1,1
None,None,None,None,None,advanceddataanalytics.net,1,0
None,None,None,None,None,app.asana.com,1,1
None,None,None,None,None,com.google.android.googlequicksearchbox,1,0
None,None,None,None,None,defenceintranet.diif.r.mil.uk,1,0
newsletter_broadcast,fl_december_2016,futurelearn_organic_email,01_12_2016_new_courses_for_the_new_year,image,direct/no referrer,1,0
None,None,None,None,None,www.yammer.com,1,0
None,None,None,None,None,encrypted.google.com,1,0
None,None,None,None,None,entrepreneurs.maqtoob.com,1,0
None,None,None,None,None,fundamentals-of-bpm.org,1,0
None,None,None,None,None,gtintranet.gtbank.com,1,0
None,None,None,None,None,hive.intranet.group,1,1
BC_IELTS_takeielts,Understanding_IELTS_May15,web,None,None,takeielts.britishcouncil.org,1,0
None,None,None,None,None,mail.163.com,1,0
None,None,None,None,None,mail.google.com,1,0
None,None,None,None,None,medium.com,1,0
None,None,None,None,None,mooc.guokr.com,1,1
None,None,None,None,None,ossu.firebaseapp.com,1,1
LMS,EDF-Moodle,Link,None,None,direct/no referrer,1,0
None,None,None,None,None,ru.tsn.ua,1,0
FL_DB,20_10_2015_FL_newsletter,crm,None,None,direct/no referrer,1,0
None,None,None,None,None,search.yahoo.com,1,0
None,None,None,None,None,smartandskilledng.com,1,1
None,None,None,None,None,strelka.com,1,1
one_week_notice_TfS_LandL1,TfS_LandL1_Oct16,email,None,None,direct/no referrer,1,0
None,None,None,None,None,vk.com,1,1
