\relax 
\providecommand\hyper@newdestlabel[2]{}
\providecommand\HyperFirstAtBeginDocument{\AtBeginDocument}
\HyperFirstAtBeginDocument{\ifx\hyper@anchor\@undefined
\global\let\oldcontentsline\contentsline
\gdef\contentsline#1#2#3#4{\oldcontentsline{#1}{#2}{#3}}
\global\let\oldnewlabel\newlabel
\gdef\newlabel#1#2{\newlabelxx{#1}#2}
\gdef\newlabelxx#1#2#3#4#5#6{\oldnewlabel{#1}{{#2}{#3}}}
\AtEndDocument{\ifx\hyper@anchor\@undefined
\let\contentsline\oldcontentsline
\let\newlabel\oldnewlabel
\fi}
\fi}
\global\let\hyper@last\relax 
\gdef\HyperFirstAtBeginDocument#1{#1}
\providecommand\HyField@AuxAddToFields[1]{}
\providecommand\HyField@AuxAddToCoFields[2]{}
\@writefile{toc}{\contentsline {section}{\numberline {1}Goal}{1}{section.1}}
\@writefile{toc}{\contentsline {section}{\numberline {2}Progress Recap}{1}{section.2}}
\@writefile{toc}{\contentsline {subsection}{\numberline {2.1}Requirements}{1}{subsection.2.1}}
\@writefile{toc}{\contentsline {subsection}{\numberline {2.2}Prototype}{1}{subsection.2.2}}
\@writefile{toc}{\contentsline {subsection}{\numberline {2.3}Design}{2}{subsection.2.3}}
\@writefile{toc}{\contentsline {subsection}{\numberline {2.4}Final Report}{2}{subsection.2.4}}
\@writefile{toc}{\contentsline {subsection}{\numberline {2.5}SEP Project}{2}{subsection.2.5}}
\@writefile{toc}{\contentsline {section}{\numberline {3}Future Plans}{2}{section.3}}
\@writefile{toc}{\contentsline {subsection}{\numberline {3.1}Design}{2}{subsection.3.1}}
\@writefile{toc}{\contentsline {section}{\numberline {4}General}{2}{section.4}}
\@writefile{toc}{\contentsline {section}{Action List}{2}{section.4}}
