\BOOKMARK [1][-]{section.1}{Goal}{}% 1
\BOOKMARK [1][-]{section.2}{Progress}{}% 2
\BOOKMARK [2][-]{subsection.2.1}{Requirements}{section.2}% 3
\BOOKMARK [2][-]{subsection.2.2}{Design and Architecture}{section.2}% 4
\BOOKMARK [1][-]{section.3}{SEP Project}{}% 5
\BOOKMARK [1][-]{section.4}{Other}{}% 6
\BOOKMARK [1][-]{section.4}{Action List}{}% 7
